Getting started with AFL Men’s data
…
Primarily, the tool can be used to access data from various sources. Data is included in the package and can be access directly however this will not be up to date. Each source of data has functions for updating data during the season.

AFL Tables match results

You can access the basic afl tables match results data. This includes all matches from 1897-current. It is generally updated on the day after a round finishes.

You can access the data directly from the package using match_results. This will be updated periodically but you will need to update your R package to get access to the latest data. It is better to use get_match_results directly, as this will give you up to date results.

library(fitzRoy)
library(dplyr)
library(ggplot2)
results <- get_match_results()

tail(results)
#> # A tibble: 6 x 16
#>    Game Date       Round Home.Team Home.Goals Home.Behinds Home.Points
#>   <dbl> <date>     <chr> <chr>          <int>        <int>       <int>
#> 1 15609 2019-09-07 QF    Richmond          18            4         112
#> 2 15610 2019-09-13 SF    Geelong           13           10          88
#> 3 15611 2019-09-14 SF    GWS               12           11          83
#> 4 15612 2019-09-20 PF    Richmond          12           13          85
#> 5 15613 2019-09-21 PF    GWS                8            8          56
#> # … with 1 more row, and 9 more variables: Away.Team <chr>,
#> #   Away.Goals <int>, Away.Behinds <int>, Away.Points <int>, Venue <chr>,
#> #   Margin <int>, Season <dbl>, Round.Type <chr>, Round.Number <int>

You can also convert this format into a more analysis friendly “long” format using the helper function convert_results.

results_long <- convert_results(results)

head(results_long)
#> # A tibble: 6 x 13
#>    Game Date       Round Venue Margin Season Round.Type Round.Number Status
#>   <dbl> <date>     <chr> <chr>  <dbl>  <dbl> <chr>             <int> <chr> 
#> 1     1 1897-05-08 R1    Brun…     33   1897 Regular               1 Home  
#> 2     1 1897-05-08 R1    Brun…    -33   1897 Regular               1 Away  
#> 3     2 1897-05-08 R1    Vict…     25   1897 Regular               1 Home  
#> 4     2 1897-05-08 R1    Vict…    -25   1897 Regular               1 Away  
#> 5     3 1897-05-08 R1    Cori…    -23   1897 Regular               1 Home  
#> # … with 1 more row, and 4 more variables: Behinds <chr>, Goals <chr>,
#> #   Points <chr>, Team <chr>

AFL Tables player results

A new function will return all detailed player stats from AFLtables. Primarily, the easiest way to use this is simply to call get_afltables_stats with your required start_date and end_date.

stats <- get_afltables_stats(start_date = "2000-01-01", end_date = "2018-06-01")
#> Returning data from 2000-01-01 to 2018-06-01
#> Finished getting afltables data

tail(stats)
#> # A tibble: 6 x 59
#>   Season Round Date       Local.start.time Venue Attendance Home.team  HQ1G
#>    <dbl> <chr> <date>                <int> <chr>      <int> <chr>     <int>
#> 1   2018 10    2018-05-27             1440 "Per…      37575 Fremantle     3
#> 2   2018 10    2018-05-27             1440 "Per…      37575 Fremantle     3
#> 3   2018 10    2018-05-27             1440 "Per…      37575 Fremantle     3
#> 4   2018 10    2018-05-27             1440 "Per…      37575 Fremantle     3
#> 5   2018 10    2018-05-27             1440 "Per…      37575 Fremantle     3
#> # … with 1 more row, and 51 more variables: HQ1B <int>, HQ2G <int>,
#> #   HQ2B <int>, HQ3G <int>, HQ3B <int>, HQ4G <int>, HQ4B <int>,
#> #   Home.score <int>, Away.team <chr>, AQ1G <int>, AQ1B <int>, AQ2G <int>,
#> #   AQ2B <int>, AQ3G <int>, AQ3B <int>, AQ4G <int>, AQ4B <int>,
#> #   Away.score <int>, First.name <chr>, Surname <chr>, ID <dbl>,
#> #   Jumper.No. <dbl>, Playing.for <chr>, Kicks <dbl>, Marks <dbl>,
#> #   Handballs <dbl>, Goals <dbl>, Behinds <dbl>, Hit.Outs <dbl>,
#> #   Tackles <dbl>, Rebounds <dbl>, Inside.50s <dbl>, Clearances <dbl>,
#> #   Clangers <dbl>, Frees.For <dbl>, Frees.Against <dbl>,
#> #   Brownlow.Votes <dbl>, Contested.Possessions <dbl>,
#> #   Uncontested.Possessions <dbl>, Contested.Marks <dbl>,
#> #   Marks.Inside.50 <dbl>, One.Percenters <dbl>, Bounces <dbl>,
#> #   Goal.Assists <dbl>, Time.on.Ground.. <int>, Substitute <int>,
#> #   Umpire.1 <chr>, Umpire.2 <chr>, Umpire.3 <chr>, Umpire.4 <chr>,
#> #   group_id <int>

Fixture

You can access the fixture using get_fixture function. This will download the fixture for the current calendar year by default.

fixture <- get_fixture()

head(fixture)
#> # A tibble: 6 x 7
#>   Date                Season Season.Game Round Home.Team  Away.Team  Venue 
#>   <dttm>               <int>       <int> <dbl> <chr>      <chr>      <chr> 
#> 1 2019-03-21 19:25:00   2019           1     1 Carlton    Richmond   MCG   
#> 2 2019-03-22 19:50:00   2019           1     1 Collingwo… Geelong    MCG   
#> 3 2019-03-23 13:45:00   2019           1     1 Melbourne  Port Adel… MCG   
#> 4 2019-03-23 16:05:00   2019           1     1 Adelaide   Hawthorn   Adela…
#> 5 2019-03-23 19:20:00   2019           1     1 Brisbane … West Coast Gabba 
#> # … with 1 more row
…
